GLM 2: Categorical Predictors
…
Factor: a variable with a fix set of categories

Levels: The individual categories within a factor

In our dataset, what is the factor and what are its levels?

is.factor(senses_filt$Modality)

[1] FALSE

senses_filt %>% 
  mutate(Modality=factor(Modality), 
         Modality=as.factor(Modality))

# A tibble: 72 × 3
   Word       Modality   Val
   <chr>      <fct>    <dbl>
 1 acidic     Taste     5.54
 2 acrid      Smell     5.17
 3 alcoholic  Taste     5.56
 4 antiseptic Smell     5.51
 5 aromatic   Smell     5.95
 6 astringent Taste     5.96
 7 barbecued  Taste     6.05
 8 beery      Taste     6.07
 9 bitter     Taste     5.12
10 bland      Taste     5.75
# ℹ 62 more rows
…
Prediction for Taste \(X_i =1\)

\[\operatorname{Val} = b_0 + b_{1}(\operatorname{Modality}_{\operatorname{Taste}}1) + \epsilon\] \[\operatorname{\bar{Y}_{taste}} = b_0 + b_1(\operatorname{Modality}_{\operatorname{Taste}}1)\]

Dummy coding

## dummy coding
senses_dum <- senses_filt %>%
  mutate(mod=ifelse(Modality=="Smell", 0, 1))

senses_dum

# A tibble: 72 × 4
   Word       Modality   Val   mod
   <chr>      <chr>    <dbl> <dbl>
 1 acidic     Taste     5.54     1
 2 acrid      Smell     5.17     0
 3 alcoholic  Taste     5.56     1
 4 antiseptic Smell     5.51     0
 5 aromatic   Smell     5.95     0
 6 astringent Taste     5.96     1
 7 barbecued  Taste     6.05     1
 8 beery      Taste     6.07     1
 9 bitter     Taste     5.12     1
10 bland      Taste     5.75     1
# ℹ 62 more rows
…
