Monsters, Models, and Normal Distributions
…
\(b_0\) = Intercept = Estimate = Mean

Building a Model - Concrete example

broom is a helper package that provides us with lots of useful functions to get things like residuals, predicted values, etc)

null_model <- lm(values~NULL, data=df_candy)

null_model %>%
  broom::augment()

# A tibble: 200 × 7
   values .fitted   .resid    .hat .sigma     .cooksd .std.resid
    <dbl>   <dbl>    <dbl>   <dbl>  <dbl>       <dbl>      <dbl>
 1     99    105.  -5.92   0.00500   14.6 0.000839      -0.409  
 2     92    105. -12.9    0.005     14.5 0.00399       -0.891  
 3    114    105.   9.08   0.005     14.6 0.00197        0.626  
 4     97    105.  -7.92   0.005     14.6 0.00150       -0.547  
 5    106    105.   1.08   0.005     14.6 0.0000276      0.0741 
 6    123    105.  18.1    0.005     14.5 0.00781        1.25   
 7    105    105.   0.0750 0.005     14.6 0.000000134    0.00517
 8    101    105.  -3.92   0.005     14.6 0.000368      -0.271  
 9     96    105.  -8.92   0.005     14.6 0.00190       -0.616  
10    102    105.  -2.92   0.005     14.6 0.000205      -0.202  
# ℹ 190 more rows
…
