Multiple Regression
…
K is the number of predictors

N is the sample size

k <- 3 ##number of IVs/predictors
# label 1 if out 0 if not
model_out<- model_fit  %>%
  augment() %>%
  mutate(lev_out = ifelse(.hat>(2*+2)/nrow(.),1, 0))

model_out

# A tibble: 266 × 12
   .rownames CESD_total PIL_total AUDIT_TOTAL_NEW DAST_TOTAL_NEW .fitted .resid
   <chr>          <dbl>     <dbl>           <dbl>          <int>   <dbl>  <dbl>
 1 1                 28       121               1              0    8.90  19.1 
 2 2                 37        76               5              0   25.7   11.3 
 3 3                 20        98               3              0   17.5    2.51
 4 4                 15       122               3              1    9.37   5.63
 5 5                  7        99               2              0   17.2  -10.2 
 6 6                  7       134               3              0    3.76   3.24
 7 7                 27       102               2              1   17.1    9.91
 8 8                 10       124               1              0    7.76   2.24
 9 9                  9       126               1              0    6.99   2.01
10 10                 8       112               7              1   12.8   -4.82
# ℹ 256 more rows
# ℹ 5 more variables: .hat <dbl>, .sigma <dbl>, .cooksd <dbl>,
#   .std.resid <dbl>, lev_out <dbl>
…
