GLM I: Continuous/Numerical Predictors
…
Residual standard error: 7.676 on 265 degrees of freedom
Multiple R-squared:  0.3368,    Adjusted R-squared:  0.3343 
F-statistic: 134.6 on 1 and 265 DF,  p-value: < 2.2e-16

Fitted line with 95% CIs

# get cis for fitted values

model1 %>%
  augment(se_fit = TRUE, interval = "confidence")

# A tibble: 267 × 11
   CESD_total PIL_total .fitted .lower .upper .se.fit .resid    .hat .sigma
        <dbl>     <dbl>   <dbl>  <dbl>  <dbl>   <dbl>  <dbl>   <dbl>  <dbl>
 1         28       121    9.17   8.02  10.3    0.584  18.8  0.00580   7.60
 2         37        76   26.7   24.3   29.2    1.26   10.3  0.0268    7.66
 3         20        98   18.1   16.9   19.4    0.634   1.85 0.00683   7.69
 4         15       122    8.78   7.59   9.97   0.605   6.22 0.00621   7.68
 5          7        99   17.8   16.6   19.0    0.612 -10.8  0.00636   7.66
 6          7       134    4.10   2.30   5.90   0.915   2.90 0.0142    7.69
 7         27       102   16.6   15.5   17.7    0.553  10.4  0.00519   7.66
 8         10       124    8.00   6.72   9.28   0.650   2.00 0.00716   7.69
 9          9       126    7.22   5.85   8.59   0.698   1.78 0.00826   7.69
10          8       112   12.7   11.8   13.6    0.472  -4.68 0.00378   7.69
# ℹ 257 more rows
# ℹ 2 more variables: .cooksd <dbl>, .std.resid <dbl>
…
