LM: Transformations
…
Centering - How?

# man way
data %>%
  mutate(age_c=age-mean(age))

# A tibble: 66 × 3
     age pitch  age_c
   <dbl> <dbl>  <dbl>
 1  66.4  166.   7.66
 2  64.4  170.   5.60
 3  61.9  172.   3.14
 4  54.6  171.  -4.17
 5  69.4  156.  10.7 
 6  62.0  169.   3.23
 7  67.5  175.   8.77
 8  43.8  182. -15.0 
 9  69.7  168.  11.0 
10  68.2  156.   9.49
# ℹ 56 more rows

# data wizard from easystats
data %>%
  mutate(age_c=age-mean(age), 
         age_c_dw=datawizard::center(age))

# A tibble: 66 × 4
     age pitch  age_c age_c_dw  
   <dbl> <dbl>  <dbl> <dw_trnsf>
 1  66.4  166.   7.66   7.664545
 2  64.4  170.   5.60   5.604545
 3  61.9  172.   3.14   3.144545
 4  54.6  171.  -4.17  -4.165455
 5  69.4  156.  10.7   10.664545
 6  62.0  169.   3.23   3.234545
 7  67.5  175.   8.77   8.774545
 8  43.8  182. -15.0  -14.985455
 9  69.7  168.  11.0   10.964545
10  68.2  156.   9.49   9.494545
# ℹ 56 more rows

data

# A tibble: 66 × 3
     age pitch  age_c
   <dbl> <dbl>  <dbl>
 1  66.4  166.   7.66
 2  64.4  170.   5.60
 3  61.9  172.   3.14
 4  54.6  171.  -4.17
 5  69.4  156.  10.7 
 6  62.0  169.   3.23
 7  67.5  175.   8.77
 8  43.8  182. -15.0 
 9  69.7  168.  11.0 
10  68.2  156.   9.49
# ℹ 56 more rows
…
Standardizing - How?

data %>%
  mutate(age_z=(age-mean(age))/sd(age), 
         age_z_dw=datawizard::standardize(age), 
         age_z_base=scale(age))

# A tibble: 66 × 6
     age pitch  age_c  age_z age_z_dw   age_z_base[,1]
   <dbl> <dbl>  <dbl>  <dbl> <dw_trnsf>          <dbl>
 1  66.4  166.   7.66  0.578  0.5783796          0.578
 2  64.4  170.   5.60  0.423  0.4229285          0.423
 3  61.9  172.   3.14  0.237  0.2372927          0.237
 4  54.6  171.  -4.17 -0.314 -0.3143323         -0.314
 5  69.4  156.  10.7   0.805  0.8047647          0.805
 6  62.0  169.   3.23  0.244  0.2440843          0.244
 7  67.5  175.   8.77  0.662  0.6621421          0.662
 8  43.8  182. -15.0  -1.13  -1.1308278         -1.13 
 9  69.7  168.  11.0   0.827  0.8274032          0.827
10  68.2  156.   9.49  0.716  0.7164745          0.716
# ℹ 56 more rows
…
